Country,CountryCode,Slug,NewConfirmed,TotalConfirmed,NewDeaths,TotalDeaths,NewRecovered,TotalRecovered,Date,Longitude,Latitude
ALA Aland Islands,ALA,ala-aland-islands,0,0,0,0,0,0,2020-04-10 02:45:00+00:00,0,0
Afghanistan,AFG,afghanistan,40,484,1,15,3,32,2020-04-10 02:45:00+00:00,0,0
Albania,ALB,albania,9,409,1,23,11,165,2020-04-10 02:45:00+00:00,0,0
Algeria,DZA,algeria,94,1666,30,235,110,347,2020-04-10 02:45:00+00:00,0,0
American Samoa,ASM,american-samoa,0,0,0,0,0,0,2020-04-10 02:45:00+00:00,0,0
Andorra,AND,andorra,19,583,2,25,6,58,2020-04-10 02:45:00+00:00,0,0
Angola,AGO,angola,0,19,0,2,0,2,2020-04-10 02:45:00+00:00,0,0
Anguilla,AIA,anguilla,0,0,0,0,0,0,2020-04-10 02:45:00+00:00,0,0
Antarctica,ATA,antarctica,0,0,0,0,0,0,2020-04-10 02:45:00+00:00,0,0
Antigua and Barbuda,ATG,antigua-and-barbuda,0,19,0,2,0,0,2020-04-10 02:45:00+00:00,0,0
Argentina,ARG,argentina,80,1795,9,72,7,365,2020-04-10 02:45:00+00:00,0,0
Armenia,ARM,armenia,40,921,1,10,24,138,2020-04-10 02:45:00+00:00,0,0
Aruba,ABW,aruba,0,0,0,0,0,0,2020-04-10 02:45:00+00:00,0,0
Australia,AUS,australia,98,6108,1,51,392,1472,2020-04-10 02:45:00+00:00,0,0
Austria,AUT,austria,302,13244,22,295,728,5240,2020-04-10 02:45:00+00:00,0,0
Azerbaijan,AZE,azerbaijan,104,926,1,9,38,101,2020-04-10 02:45:00+00:00,0,0
Bahamas,BHS,bahamas,1,41,1,8,0,5,2020-04-10 02:45:00+00:00,0,0
Bahrain,BHR,bahrain,64,887,0,5,42,519,2020-04-10 02:45:00+00:00,0,0
Bangladesh,BGD,bangladesh,112,330,1,21,0,33,2020-04-10 02:45:00+00:00,0,0
Barbados,BRB,barbados,3,66,0,3,3,11,2020-04-10 02:45:00+00:00,0,0
Belarus,BLR,belarus,420,1486,3,16,62,139,2020-04-10 02:45:00+00:00,0,0
Belgium,BEL,belgium,1580,24983,283,2523,483,5164,2020-04-10 02:45:00+00:00,0,0
Belize,BLZ,belize,1,9,0,1,0,0,2020-04-10 02:45:00+00:00,0,0
Benin,BEN,benin,0,26,0,1,0,5,2020-04-10 02:45:00+00:00,0,0
Bermuda,BMU,bermuda,0,0,0,0,0,0,2020-04-10 02:45:00+00:00,0,0
Bhutan,BTN,bhutan,0,5,0,0,0,2,2020-04-10 02:45:00+00:00,0,0
Bolivia,BOL,bolivia,54,264,3,18,0,2,2020-04-10 02:45:00+00:00,0,0
Bosnia and Herzegovina,BIH,bosnia-and-herzegovina,54,858,1,35,22,101,2020-04-10 02:45:00+00:00,0,0
Botswana,BWA,botswana,7,13,0,1,0,0,2020-04-10 02:45:00+00:00,0,0
Bouvet Island,BVT,bouvet-island,0,0,0,0,0,0,2020-04-10 02:45:00+00:00,0,0
Brazil,BRA,brazil,1922,18092,131,950,46,173,2020-04-10 02:45:00+00:00,0,0
British Indian Ocean Territory,IOT,british-indian-ocean-territory,0,0,0,0,0,0,2020-04-10 02:45:00+00:00,0,0
British Virgin Islands,VGB,british-virgin-islands,0,0,0,0,0,0,2020-04-10 02:45:00+00:00,0,0
Brunei Darussalam,BRN,brunei,0,135,0,1,1,92,2020-04-10 02:45:00+00:00,0,0
Bulgaria,BGR,bulgaria,25,618,0,24,6,48,2020-04-10 02:45:00+00:00,0,0
Burkina Faso,BFA,burkina-faso,29,443,1,24,12,146,2020-04-10 02:45:00+00:00,0,0
Burundi,BDI,burundi,0,3,0,0,0,0,2020-04-10 02:45:00+00:00,0,0
Cameroon,CMR,cameroon,0,730,0,10,0,60,2020-04-10 02:45:00+00:00,0,0
Canada,CAN,canada,1513,20654,96,502,1008,5162,2020-04-10 02:45:00+00:00,0,0
Cape Verde,CPV,cape-verde,0,7,0,1,0,1,2020-04-10 02:45:00+00:00,0,0
Cayman Islands,CYM,cayman-islands,0,0,0,0,0,0,2020-04-10 02:45:00+00:00,0,0
Central African Republic,CAF,central-african-republic,0,8,0,0,0,0,2020-04-10 02:45:00+00:00,0,0
Chad,TCD,chad,1,11,0,0,0,2,2020-04-10 02:45:00+00:00,0,0
Chile,CHL,chile,426,5972,9,57,159,1274,2020-04-10 02:45:00+00:00,0,0
China,CHN,china,74,82883,2,3339,112,77679,2020-04-10 02:45:00+00:00,0,0
Christmas Island,CXR,christmas-island,0,0,0,0,0,0,2020-04-10 02:45:00+00:00,0,0
Cocos (Keeling) Islands,CCK,cocos-keeling-islands,0,0,0,0,0,0,2020-04-10 02:45:00+00:00,0,0
Colombia,COL,colombia,169,2223,15,69,51,174,2020-04-10 02:45:00+00:00,0,0
Comoros,COM,comoros,0,0,0,0,0,0,2020-04-10 02:45:00+00:00,0,0
Congo (Brazzaville),COG,congo-brazzaville,15,60,0,5,3,5,2020-04-10 02:45:00+00:00,0,0
Congo (Kinshasa),COD,congo-kinshasa,0,180,0,18,0,9,2020-04-10 02:45:00+00:00,0,0
Cook Islands,COK,cook-islands,0,0,0,0,0,0,2020-04-10 02:45:00+00:00,0,0
Costa Rica,CRI,costa-rica,37,539,0,3,1,30,2020-04-10 02:45:00+00:00,0,0
Croatia,HRV,croatia,64,1407,1,20,40,219,2020-04-10 02:45:00+00:00,0,0
Cuba,CUB,cuba,58,515,3,15,1,28,2020-04-10 02:45:00+00:00,0,0
Cyprus,CYP,cyprus,38,564,1,10,1,53,2020-04-10 02:45:00+00:00,0,0
Czech Republic,CZE,czech-republic,257,5569,13,112,68,301,2020-04-10 02:45:00+00:00,0,0
Côte d'Ivoire,CIV,cote-divoire,60,444,0,3,4,52,2020-04-10 02:45:00+00:00,0,0
Denmark,DNK,denmark,233,5830,19,237,120,1883,2020-04-10 02:45:00+00:00,0,0
Djibouti,DJI,djibouti,0,135,0,0,0,25,2020-04-10 02:45:00+00:00,0,0
Dominica,DMA,dominica,0,15,0,0,0,1,2020-04-10 02:45:00+00:00,0,0
Dominican Republic,DOM,dominican-republic,238,2349,10,118,30,80,2020-04-10 02:45:00+00:00,0,0
Ecuador,ECU,ecuador,515,4965,30,272,199,339,2020-04-10 02:45:00+00:00,0,0
Egypt,EGY,egypt,139,1699,15,118,43,348,2020-04-10 02:45:00+00:00,0,0
El Salvador,SLV,el-salvador,10,103,1,6,5,14,2020-04-10 02:45:00+00:00,0,0
Equatorial Guinea,GNQ,equatorial-guinea,0,18,0,0,0,3,2020-04-10 02:45:00+00:00,0,0
Eritrea,ERI,eritrea,0,33,0,0,0,0,2020-04-10 02:45:00+00:00,0,0
Estonia,EST,estonia,22,1207,0,24,11,83,2020-04-10 02:45:00+00:00,0,0
Ethiopia,ETH,ethiopia,1,56,0,2,0,4,2020-04-10 02:45:00+00:00,0,0
Falkland Islands (Malvinas),FLK,falkland-islands-malvinas,0,0,0,0,0,0,2020-04-10 02:45:00+00:00,0,0
Faroe Islands,FRO,faroe-islands,0,0,0,0,0,0,2020-04-10 02:45:00+00:00,0,0
Fiji,FJI,fiji,0,15,0,0,0,0,2020-04-10 02:45:00+00:00,0,0
Finland,FIN,finland,118,2605,2,42,0,300,2020-04-10 02:45:00+00:00,0,0
France,FRA,france,4822,118781,1341,12228,1961,23413,2020-04-10 02:45:00+00:00,0,0
French Guiana,GUF,french-guiana,0,0,0,0,0,0,2020-04-10 02:45:00+00:00,0,0
French Polynesia,PYF,french-polynesia,0,0,0,0,0,0,2020-04-10 02:45:00+00:00,0,0
French Southern Territories,ATF,french-southern-territories,0,0,0,0,0,0,2020-04-10 02:45:00+00:00,0,0
Gabon,GAB,gabon,10,44,0,1,0,1,2020-04-10 02:45:00+00:00,0,0
Gambia,GMB,gambia,0,4,0,1,0,2,2020-04-10 02:45:00+00:00,0,0
Georgia,GEO,georgia,7,218,0,3,1,51,2020-04-10 02:45:00+00:00,0,0
Germany,DEU,germany,4885,118181,258,2607,6107,52407,2020-04-10 02:45:00+00:00,0,0
Gibraltar,GIB,gibraltar,0,0,0,0,0,0,2020-04-10 02:45:00+00:00,0,0
Greece,GRC,greece,71,1955,4,87,0,269,2020-04-10 02:45:00+00:00,0,0
Greenland,GRL,greenland,0,0,0,0,0,0,2020-04-10 02:45:00+00:00,0,0
Grenada,GRD,grenada,0,12,0,0,0,0,2020-04-10 02:45:00+00:00,0,0
Guadeloupe,GLP,guadeloupe,0,0,0,0,0,0,2020-04-10 02:45:00+00:00,0,0
Guam,GUM,guam,0,0,0,0,0,0,2020-04-10 02:45:00+00:00,0,0
Guatemala,GTM,guatemala,8,95,0,3,0,17,2020-04-10 02:45:00+00:00,0,0
Guernsey,GGY,guernsey,0,0,0,0,0,0,2020-04-10 02:45:00+00:00,0,0
Guinea,GIN,guinea,30,194,0,0,6,11,2020-04-10 02:45:00+00:00,0,0
Guinea-Bissau,GNB,guinea-bissau,3,36,0,0,0,0,2020-04-10 02:45:00+00:00,0,0
Guyana,GUY,guyana,0,37,0,6,0,8,2020-04-10 02:45:00+00:00,0,0
Haiti,HTI,haiti,3,30,1,2,0,0,2020-04-10 02:45:00+00:00,0,0
Heard and Mcdonald Islands,HMD,heard-and-mcdonald-islands,0,0,0,0,0,0,2020-04-10 02:45:00+00:00,0,0
Holy See (Vatican City State),VAT,holy-see-vatican-city-state,0,8,0,0,0,2,2020-04-10 02:45:00+00:00,0,0
Honduras,HND,honduras,31,343,1,23,0,6,2020-04-10 02:45:00+00:00,0,0
"Hong Kong, SAR China",HKG,hong-kong-sar-china,0,0,0,0,0,0,2020-04-10 02:45:00+00:00,0,0
Hungary,HUN,hungary,85,980,8,66,2,96,2020-04-10 02:45:00+00:00,0,0
Iceland,ISL,iceland,32,1648,0,6,55,688,2020-04-10 02:45:00+00:00,0,0
India,IND,india,809,6725,48,226,114,620,2020-04-10 02:45:00+00:00,0,0
Indonesia,IDN,indonesia,337,3293,40,280,30,252,2020-04-10 02:45:00+00:00,0,0
"Iran, Islamic Republic of",IRN,iran,1634,66220,117,4110,2497,32309,2020-04-10 02:45:00+00:00,0,0
Iraq,IRQ,iraq,30,1232,0,69,44,496,2020-04-10 02:45:00+00:00,0,0
Ireland,IRL,ireland,500,6574,28,263,0,25,2020-04-10 02:45:00+00:00,0,0
Isle of Man,IMN,isle-of-man,0,0,0,0,0,0,2020-04-10 02:45:00+00:00,0,0
Israel,ISR,israel,564,9968,13,86,210,1011,2020-04-10 02:45:00+00:00,0,0
Italy,ITA,italy,4204,143626,610,18279,1979,28470,2020-04-10 02:45:00+00:00,0,0
Jamaica,JAM,jamaica,0,63,0,4,2,12,2020-04-10 02:45:00+00:00,0,0
Japan,JPN,japan,410,4667,1,94,10,632,2020-04-10 02:45:00+00:00,0,0
Jersey,JEY,jersey,0,0,0,0,0,0,2020-04-10 02:45:00+00:00,0,0
Jordan,JOR,jordan,14,372,1,7,11,161,2020-04-10 02:45:00+00:00,0,0
Kazakhstan,KAZ,kazakhstan,54,781,1,8,6,60,2020-04-10 02:45:00+00:00,0,0
Kenya,KEN,kenya,5,184,1,7,3,12,2020-04-10 02:45:00+00:00,0,0
Kiribati,KIR,kiribati,0,0,0,0,0,0,2020-04-10 02:45:00+00:00,0,0
Korea (North),PRK,korea-north,0,0,0,0,0,0,2020-04-10 02:45:00+00:00,0,0
Korea (South),KOR,korea-south,39,10423,4,204,197,6973,2020-04-10 02:45:00+00:00,0,0
Kuwait,KWT,kuwait,55,910,0,1,0,111,2020-04-10 02:45:00+00:00,0,0
Kyrgyzstan,KGZ,kyrgyzstan,10,280,0,4,2,35,2020-04-10 02:45:00+00:00,0,0
Lao PDR,LAO,lao-pdr,1,16,0,0,0,0,2020-04-10 02:45:00+00:00,0,0
Latvia,LVA,latvia,12,589,1,3,0,16,2020-04-10 02:45:00+00:00,0,0
Lebanon,LBN,lebanon,6,582,0,19,5,67,2020-04-10 02:45:00+00:00,0,0
Lesotho,LSO,lesotho,0,0,0,0,0,0,2020-04-10 02:45:00+00:00,0,0
Liberia,LBR,liberia,0,31,0,4,0,3,2020-04-10 02:45:00+00:00,0,0
Libya,LBY,libya,3,24,0,1,0,8,2020-04-10 02:45:00+00:00,0,0
Liechtenstein,LIE,liechtenstein,0,78,0,1,0,55,2020-04-10 02:45:00+00:00,0,0
Lithuania,LTU,lithuania,43,955,1,16,0,8,2020-04-10 02:45:00+00:00,0,0
Luxembourg,LUX,luxembourg,81,3115,6,52,0,500,2020-04-10 02:45:00+00:00,0,0
"Macao, SAR China",MAC,macao-sar-china,0,0,0,0,0,0,2020-04-10 02:45:00+00:00,0,0
"Macedonia, Republic of",MKD,macedonia,46,663,1,30,2,37,2020-04-10 02:45:00+00:00,0,0
Madagascar,MDG,madagascar,0,93,0,0,0,11,2020-04-10 02:45:00+00:00,0,0
Malawi,MWI,malawi,0,8,0,1,0,0,2020-04-10 02:45:00+00:00,0,0
Malaysia,MYS,malaysia,109,4228,2,67,121,1608,2020-04-10 02:45:00+00:00,0,0
Maldives,MDV,maldives,0,19,0,0,0,13,2020-04-10 02:45:00+00:00,0,0
Mali,MLI,mali,15,74,0,7,6,22,2020-04-10 02:45:00+00:00,0,0
Malta,MLT,malta,38,337,1,2,0,16,2020-04-10 02:45:00+00:00,0,0
Marshall Islands,MHL,marshall-islands,0,0,0,0,0,0,2020-04-10 02:45:00+00:00,0,0
Martinique,MTQ,martinique,0,0,0,0,0,0,2020-04-10 02:45:00+00:00,0,0
Mauritania,MRT,mauritania,1,7,0,1,0,2,2020-04-10 02:45:00+00:00,0,0
Mauritius,MUS,mauritius,41,314,0,7,4,23,2020-04-10 02:45:00+00:00,0,0
Mayotte,MYT,mayotte,0,0,0,0,0,0,2020-04-10 02:45:00+00:00,0,0
Mexico,MEX,mexico,396,3181,33,174,0,633,2020-04-10 02:45:00+00:00,0,0
"Micronesia, Federated States of",FSM,micronesia,0,0,0,0,0,0,2020-04-10 02:45:00+00:00,0,0
Moldova,MDA,moldova,115,1289,2,29,10,50,2020-04-10 02:45:00+00:00,0,0
Monaco,MCO,monaco,3,84,0,1,1,5,2020-04-10 02:45:00+00:00,0,0
Mongolia,MNG,mongolia,0,16,0,0,0,4,2020-04-10 02:45:00+00:00,0,0
Montenegro,MNE,montenegro,4,252,0,2,0,4,2020-04-10 02:45:00+00:00,0,0
Montserrat,MSR,montserrat,0,0,0,0,0,0,2020-04-10 02:45:00+00:00,0,0
Morocco,MAR,morocco,99,1374,4,97,12,109,2020-04-10 02:45:00+00:00,0,0
Mozambique,MOZ,mozambique,0,17,0,0,0,1,2020-04-10 02:45:00+00:00,0,0
Myanmar,MMR,myanmar,1,23,0,3,2,2,2020-04-10 02:45:00+00:00,0,0
Namibia,NAM,namibia,0,16,0,0,0,3,2020-04-10 02:45:00+00:00,0,0
Nauru,NRU,nauru,0,0,0,0,0,0,2020-04-10 02:45:00+00:00,0,0
Nepal,NPL,nepal,0,9,0,0,0,1,2020-04-10 02:45:00+00:00,0,0
Netherlands,NLD,netherlands,1221,21903,148,2403,6,278,2020-04-10 02:45:00+00:00,0,0
Netherlands Antilles,not found,netherlands-antilles,0,0,0,0,0,0,2020-04-10 02:45:00+00:00,0,0
New Caledonia,NCL,new-caledonia,0,0,0,0,0,0,2020-04-10 02:45:00+00:00,0,0
New Zealand,NZL,new-zealand,29,1239,0,1,35,317,2020-04-10 02:45:00+00:00,0,0
Nicaragua,NIC,nicaragua,1,7,0,1,0,0,2020-04-10 02:45:00+00:00,0,0
Niger,NER,niger,68,410,0,11,12,40,2020-04-10 02:45:00+00:00,0,0
Nigeria,NGA,nigeria,12,288,1,7,7,51,2020-04-10 02:45:00+00:00,0,0
Niue,NIU,niue,0,0,0,0,0,0,2020-04-10 02:45:00+00:00,0,0
Norfolk Island,NFK,norfolk-island,0,0,0,0,0,0,2020-04-10 02:45:00+00:00,0,0
Northern Mariana Islands,MNP,northern-mariana-islands,0,0,0,0,0,0,2020-04-10 02:45:00+00:00,0,0
Norway,NOR,norway,125,6211,7,108,0,32,2020-04-10 02:45:00+00:00,0,0
Oman,OMN,oman,38,457,1,3,37,109,2020-04-10 02:45:00+00:00,0,0
Pakistan,PAK,pakistan,226,4489,4,65,105,572,2020-04-10 02:45:00+00:00,0,0
Palau,PLW,palau,0,0,0,0,0,0,2020-04-10 02:45:00+00:00,0,0
Palestinian Territory,PSE,palestine,0,263,0,1,0,44,2020-04-10 02:45:00+00:00,0,0
Panama,PAN,panama,279,2528,4,63,0,16,2020-04-10 02:45:00+00:00,0,0
Papua New Guinea,PNG,papua-new-guinea,0,2,0,0,0,0,2020-04-10 02:45:00+00:00,0,0
Paraguay,PRY,paraguay,5,124,0,5,3,18,2020-04-10 02:45:00+00:00,0,0
Peru,PER,peru,914,5256,17,138,105,1438,2020-04-10 02:45:00+00:00,0,0
Philippines,PHL,philippines,206,4076,21,203,28,124,2020-04-10 02:45:00+00:00,0,0
Pitcairn,PCN,pitcairn,0,0,0,0,0,0,2020-04-10 02:45:00+00:00,0,0
Poland,POL,poland,370,5575,15,174,62,284,2020-04-10 02:45:00+00:00,0,0
Portugal,PRT,portugal,815,13956,29,409,9,205,2020-04-10 02:45:00+00:00,0,0
Puerto Rico,PRI,puerto-rico,0,0,0,0,0,0,2020-04-10 02:45:00+00:00,0,0
Qatar,QAT,qatar,166,2376,0,6,28,206,2020-04-10 02:45:00+00:00,0,0
Republic of Kosovo,XKX,kosovo,0,184,0,5,0,30,2020-04-10 02:45:00+00:00,0,0
Romania,ROU,romania,441,5202,28,248,119,647,2020-04-10 02:45:00+00:00,0,0
Russian Federation,RUS,russia,1459,10131,13,76,118,698,2020-04-10 02:45:00+00:00,0,0
Rwanda,RWA,rwanda,0,110,0,0,0,7,2020-04-10 02:45:00+00:00,0,0
Réunion,REU,réunion,0,0,0,0,0,0,2020-04-10 02:45:00+00:00,0,0
Saint Helena,SHN,saint-helena,0,0,0,0,0,0,2020-04-10 02:45:00+00:00,0,0
Saint Kitts and Nevis,KNA,saint-kitts-and-nevis,0,11,0,0,0,0,2020-04-10 02:45:00+00:00,0,0
Saint Lucia,LCA,saint-lucia,0,14,0,0,0,1,2020-04-10 02:45:00+00:00,0,0
Saint Pierre and Miquelon,SPM,saint-pierre-and-miquelon,0,0,0,0,0,0,2020-04-10 02:45:00+00:00,0,0
Saint Vincent and Grenadines,VCT,saint-vincent-and-the-grenadines,4,12,0,0,0,1,2020-04-10 02:45:00+00:00,0,0
Saint-Barthélemy,BLM,saint-barthélemy,0,0,0,0,0,0,2020-04-10 02:45:00+00:00,0,0
Saint-Martin (French part),MAF,saint-martin-french-part,0,0,0,0,0,0,2020-04-10 02:45:00+00:00,0,0
Samoa,WSM,samoa,0,0,0,0,0,0,2020-04-10 02:45:00+00:00,0,0
San Marino,SMR,san-marino,54,333,0,34,9,49,2020-04-10 02:45:00+00:00,0,0
Sao Tome and Principe,STP,sao-tome-and-principe,0,4,0,0,0,0,2020-04-10 02:45:00+00:00,0,0
Saudi Arabia,SAU,saudi-arabia,355,3287,3,44,35,666,2020-04-10 02:45:00+00:00,0,0
Senegal,SEN,senegal,6,250,0,2,10,123,2020-04-10 02:45:00+00:00,0,0
Serbia,SRB,serbia,201,2867,1,66,0,0,2020-04-10 02:45:00+00:00,0,0
Seychelles,SYC,seychelles,0,11,0,0,0,0,2020-04-10 02:45:00+00:00,0,0
Sierra Leone,SLE,sierra-leone,0,7,0,0,0,0,2020-04-10 02:45:00+00:00,0,0
Singapore,SGP,singapore,287,1910,0,6,54,460,2020-04-10 02:45:00+00:00,0,0
Slovakia,SVK,slovakia,19,701,0,2,7,23,2020-04-10 02:45:00+00:00,0,0
Slovenia,SVN,slovenia,33,1124,3,43,8,128,2020-04-10 02:45:00+00:00,0,0
Solomon Islands,SLB,solomon-islands,0,0,0,0,0,0,2020-04-10 02:45:00+00:00,0,0
Somalia,SOM,somalia,0,12,0,1,0,1,2020-04-10 02:45:00+00:00,0,0
South Africa,ZAF,south-africa,89,1934,0,18,0,95,2020-04-10 02:45:00+00:00,0,0
South Georgia and the South Sandwich Islands,SGS,south-georgia-and-the-south-sandwich-islands,0,0,0,0,0,0,2020-04-10 02:45:00+00:00,0,0
South Sudan,SSD,south-sudan,0,0,0,0,0,0,2020-04-10 02:45:00+00:00,0,0
Spain,ESP,spain,5002,153222,655,15447,4144,52165,2020-04-10 02:45:00+00:00,0,0
Sri Lanka,LKA,sri-lanka,1,190,0,7,5,49,2020-04-10 02:45:00+00:00,0,0
Sudan,SDN,sudan,1,15,0,2,0,2,2020-04-10 02:45:00+00:00,0,0
Suriname,SUR,suriname,0,10,0,1,1,4,2020-04-10 02:45:00+00:00,0,0
Svalbard and Jan Mayen Islands,SJM,svalbard-and-jan-mayen-islands,0,0,0,0,0,0,2020-04-10 02:45:00+00:00,0,0
Swaziland,SWZ,swaziland,0,12,0,0,0,7,2020-04-10 02:45:00+00:00,0,0
Sweden,SWE,sweden,722,9141,106,793,0,205,2020-04-10 02:45:00+00:00,0,0
Switzerland,CHE,switzerland,771,24051,53,948,800,10600,2020-04-10 02:45:00+00:00,0,0
Syrian Arab Republic (Syria),SYR,syria,0,19,0,2,0,4,2020-04-10 02:45:00+00:00,0,0
"Taiwan, Republic of China",TWN,taiwan,1,380,0,5,6,67,2020-04-10 02:45:00+00:00,0,0
Tajikistan,TJK,tajikistan,0,0,0,0,0,0,2020-04-10 02:45:00+00:00,0,0
"Tanzania, United Republic of",TZA,tanzania,0,25,0,1,0,5,2020-04-10 02:45:00+00:00,0,0
Thailand,THA,thailand,54,2423,2,32,52,940,2020-04-10 02:45:00+00:00,0,0
Timor-Leste,TLS,timor-leste,0,1,0,0,0,0,2020-04-10 02:45:00+00:00,0,0
Togo,TGO,togo,3,73,0,3,1,24,2020-04-10 02:45:00+00:00,0,0
Tokelau,TKL,tokelau,0,0,0,0,0,0,2020-04-10 02:45:00+00:00,0,0
Tonga,TON,tonga,0,0,0,0,0,0,2020-04-10 02:45:00+00:00,0,0
Trinidad and Tobago,TTO,trinidad-and-tobago,2,109,0,8,0,1,2020-04-10 02:45:00+00:00,0,0
Tunisia,TUN,tunisia,15,643,1,25,0,25,2020-04-10 02:45:00+00:00,0,0
Turkey,TUR,turkey,4056,42282,96,908,296,2142,2020-04-10 02:45:00+00:00,0,0
Turkmenistan,TKM,turkmenistan,0,0,0,0,0,0,2020-04-10 02:45:00+00:00,0,0
Turks and Caicos Islands,TCA,turks-and-caicos-islands,0,0,0,0,0,0,2020-04-10 02:45:00+00:00,0,0
Tuvalu,TUV,tuvalu,0,0,0,0,0,0,2020-04-10 02:45:00+00:00,0,0
US Minor Outlying Islands,UMI,us-minor-outlying-islands,0,0,0,0,0,0,2020-04-10 02:45:00+00:00,0,0
Uganda,UGA,uganda,0,53,0,0,0,0,2020-04-10 02:45:00+00:00,0,0
Ukraine,UKR,ukraine,224,1892,5,57,10,45,2020-04-10 02:45:00+00:00,0,0
United Arab Emirates,ARE,united-arab-emirates,331,2990,2,14,29,268,2020-04-10 02:45:00+00:00,0,0
United Kingdom,GBR,united-kingdom,4398,65872,882,7993,14,359,2020-04-10 02:45:00+00:00,0,0
United States of America,USA,united-states,32385,461432,1783,16477,1851,25410,2020-04-10 02:45:00+00:00,0,0
Uruguay,URY,uruguay,32,456,0,7,42,192,2020-04-10 02:45:00+00:00,0,0
Uzbekistan,UZB,uzbekistan,37,582,0,3,8,38,2020-04-10 02:45:00+00:00,0,0
Vanuatu,VUT,vanuatu,0,0,0,0,0,0,2020-04-10 02:45:00+00:00,0,0
Venezuela (Bolivarian Republic),VEN,venezuela,4,171,0,9,19,84,2020-04-10 02:45:00+00:00,0,0
Viet Nam,VNM,vietnam,4,255,0,0,2,128,2020-04-10 02:45:00+00:00,0,0
"Virgin Islands, US",VIR,virgin-islands,0,0,0,0,0,0,2020-04-10 02:45:00+00:00,0,0
Wallis and Futuna Islands,WLF,wallis-and-futuna-islands,0,0,0,0,0,0,2020-04-10 02:45:00+00:00,0,0
Western Sahara,ESH,western-sahara,0,4,0,0,0,0,2020-04-10 02:45:00+00:00,0,0
Yemen,YEM,yemen,0,0,0,0,0,0,2020-04-10 02:45:00+00:00,0,0
Zambia,ZMB,zambia,0,39,0,1,17,24,2020-04-10 02:45:00+00:00,0,0
Zimbabwe,ZWE,zimbabwe,0,11,0,3,0,0,2020-04-10 02:45:00+00:00,0,0
